{
  "appId": "com.disposer.app",
  "appName": "disposer",
  "bundledWebRuntime": false,
  "npmClient": "npm",
  "webDir": "../../dist/apps/disposer-app/",
  "plugins": {
    "SplashScreen": {
      "launchShowDuration": 0
    }
  },
  "cordova": {}
}
