{
    "defaultProject": "disposer-app",
    "projects": {
        "disposer-app": {
            "name": "disposer-app",
            "integrations": {
                "capacitor": {}
            },
            "type": "angular",
            "root": "apps/disposer-app"
        }
    }
}
